<?xml version="1.0" encoding="utf-8"?>
<!-- Generator: Adobe Illustrator 16.0.0, SVG Export Plug-In . SVG Version: 6.00 Build 0)  -->
<!DOCTYPE svg PUBLIC "-//W3C//DTD SVG 1.1//EN" "http://www.w3.org/Graphics/SVG/1.1/DTD/svg11.dtd">
<svg version="1.1" id="Layer_1" xmlns="http://www.w3.org/2000/svg" xmlns:xlink="http://www.w3.org/1999/xlink" x="0px" y="0px"
	 width="60px" height="60px" viewBox="0 0 60 60" enable-background="new 0 0 60 60" xml:space="preserve">
<path fill="none" stroke="#603A17" stroke-width="2.1678" stroke-miterlimit="10" d="M4.872,47.43l46.591,9.47
	c0,0,3.158,1.126,3.158-6.312c0-7.441-0.037-15.992-0.037-15.992s0.453-1.58-1.912-3.384C50.3,29.407,24.552,15.359,24.552,15.359
	s-1.101-0.073-3.382,0.786L9.05,21.538c0,0-4.289,1.248-4.289,4.264C4.761,30.313,4.872,45.063,4.872,47.43z"/>
<line fill="none" stroke="#603A17" stroke-width="2.1678" stroke-miterlimit="10" x1="5.887" y1="25.351" x2="54.022" y2="35.602"/>
<line fill="none" stroke="#603A17" stroke-width="8" stroke-miterlimit="10" x1="5.148" y1="29.573" x2="54.761" y2="39.95"/>
<g>
	
		<line fill="none" stroke="#603A17" stroke-width="2.1678" stroke-miterlimit="10" x1="30.999" y1="25.787" x2="30.999" y2="9.639"/>
	<path fill="none" stroke="#603A17" stroke-width="1.7343" stroke-miterlimit="10" d="M31.067,1.5c0,0-5.074,5.307-2.053,7.478
		c1.721,1.236,1.984-0.093,1.984-0.093s0.942,1.604,2.264-0.475C35.018,5.65,31.069,1.502,31.067,1.5z"/>
	<path fill="none" stroke="#603A17" stroke-width="1.0839" stroke-miterlimit="10" d="M33.167,25.081
		c0-0.396-0.951-0.711-2.123-0.711c-1.173,0-2.125,0.316-2.125,0.711c0,0.39,0.953,0.706,2.125,0.706S33.167,25.471,33.167,25.081z"
		/>
</g>
<line fill="none" stroke="#603A17" stroke-width="7.5874" stroke-miterlimit="10" x1="5.148" y1="42.775" x2="54.761" y2="53.152"/>
</svg>
